item_begin	object_id=9421	texture={{2;[MDarkElf.MDarkElf_m010_t201_l2]};{3;[FDarkElf.FDarkElf_m010_t201_l2]};{4;[MDwarf.MDwarf_m008_t201_l2]};{5;[FDwarf.FDwarf_m008_t201_l2]};{7;[FElf.FElf_m011_t201_l2]};{8;[mMagic.MMagic_m011_t301_l2]};{9;[FMagic.FMagic_m013_t301_l2]};{12;[MShaman.MShaman_m008_t301_l2]};{13;[FShaman.FShaman_m008_t301_l2]}}	item_end
item_begin	object_id=9425	texture={{7;[FElf.FElf_m008_t101_u2]}}	item_end
item_begin	object_id=9426	texture={{7;[FElf.FElf_m008_t101_u2]}}	item_end
item_begin	object_id=9427	texture={{7;[FElf.FElf_m008_t101_u2]}}	item_end
item_begin	object_id=9428	texture={{4;[MDwarf.MDwarf_m008_t201_l2]};{5;[FDwarf.FDwarf_m008_t201_l2]};{7;[FElf.FElf_m008_t101_l2]};{8;[mMagic.MMagic_m011_t301_l2]};{9;[FMagic.FMagic_m013_t301_l2]};{12;[MShaman.MShaman_m008_t301_l2]};{13;[FShaman.FShaman_m008_t301_l2]}}	item_end
item_begin	object_id=9437	texture={{2;[MDarkElf.MDarkElf_m008_t301_l2]};{3;[FDarkElf.FDarkElf_m006_t301_l2]};{4;[MDwarf.MDwarf_m008_t201_l2]};{5;[FDwarf.FDwarf_m008_t201_l2]};{6;[MElf.MElf_m009_t301_l2]};{7;[FElf.FElf_m006_t301_l2]};{8;[mMagic.MMagic_m011_t301_l2]};{9;[FMagic.FMagic_m013_t301_l2]};{12;[MShaman.MShaman_m008_t301_l2]};{13;[FShaman.FShaman_m008_t301_l2]}}	item_end
item_begin	object_id=9515	texture={{2;[MDarkElf.MDarkElf_m010_t201_l2]};{3;[FDarkElf.FDarkElf_m010_t201_l2]};{4;[MDwarf.MDwarf_m008_t201_l2]};{5;[FDwarf.FDwarf_m008_t201_l2]};{7;[FElf.FElf_m011_t201_l2]};{8;[mMagic.MMagic_m011_t301_l2]};{9;[FMagic.FMagic_m013_t301_l2]};{12;[MShaman.MShaman_m008_t301_l2]};{13;[FShaman.FShaman_m008_t301_l2]}}	item_end
item_begin	object_id=9519	texture={{7;[FElf.FElf_m008_t101_u2]}}	item_end
item_begin	object_id=9520	texture={{4;[MDwarf.MDwarf_m008_t201_l2]};{5;[FDwarf.FDwarf_m008_t201_l2]};{7;[FElf.FElf_m008_t101_l2]};{8;[mMagic.MMagic_m011_t301_l2]};{9;[FMagic.FMagic_m013_t301_l2]};{12;[MShaman.MShaman_m008_t301_l2]};{13;[FShaman.FShaman_m008_t301_l2]}}	item_end
item_begin	object_id=9525	texture={{2;[MDarkElf.MDarkElf_m008_t301_l2]};{3;[FDarkElf.FDarkElf_m006_t301_l2]};{4;[MDwarf.MDwarf_m008_t201_l2]};{5;[FDwarf.FDwarf_m008_t201_l2]};{6;[MElf.MElf_m009_t301_l2]};{7;[FElf.FElf_m006_t301_l2]};{8;[mMagic.MMagic_m011_t301_l2]};{9;[FMagic.FMagic_m013_t301_l2]};{12;[MShaman.MShaman_m008_t301_l2]};{13;[FShaman.FShaman_m008_t301_l2]}}	item_end
item_begin	object_id=10126	texture={{7;[FElf.FElf_m008_t101_u2]}}	item_end
item_begin	object_id=10127	texture={{7;[FElf.FElf_m008_t101_u2]}}	item_end
item_begin	object_id=10168	texture={{7;[FElf.FElf_m008_t101_u2]}}	item_end
item_begin	object_id=10214	texture={{7;[FElf.FElf_m008_t101_u2]}}	item_end
item_begin	object_id=10232	texture={{7;[FElf.FElf_m008_t101_u2]}}	item_end
item_begin	object_id=10233	texture={{7;[FElf.FElf_m008_t101_u2]}}	item_end
item_begin	object_id=10234	texture={{7;[FElf.FElf_m008_t101_u2]}}	item_end
item_begin	object_id=10487	texture={{7;[FElf.FElf_m008_t101_u2]}}	item_end
item_begin	object_id=10488	texture={{7;[FElf.FElf_m008_t101_u2]}}	item_end
item_begin	object_id=10489	texture={{7;[FElf.FElf_m008_t101_u2]}}	item_end
item_begin	object_id=10490	texture={{7;[FElf.FElf_m008_t101_u2]}}	item_end
item_begin	object_id=10807	texture={{7;[FElf.FElf_m008_t101_u2]}}	item_end
item_begin	object_id=10808	texture={{7;[FElf.FElf_m008_t101_u2]}}	item_end
item_begin	object_id=10809	texture={{7;[FElf.FElf_m008_t101_u2]}}	item_end
item_begin	object_id=10815	texture={{7;[FElf.FElf_m008_t101_u2]}}	item_end
item_begin	object_id=10816	texture={{7;[FElf.FElf_m008_t101_u2]}}	item_end
item_begin	object_id=10817	texture={{7;[FElf.FElf_m008_t101_u2]}}	item_end
item_begin	object_id=10818	texture={{7;[FElf.FElf_m008_t101_u2]}}	item_end
item_begin	object_id=10824	texture={{7;[FElf.FElf_m008_t101_u2]}}	item_end
item_begin	object_id=10825	texture={{7;[FElf.FElf_m008_t101_u2]}}	item_end
item_begin	object_id=10826	texture={{7;[FElf.FElf_m008_t101_u2]}}	item_end
item_begin	object_id=10832	texture={{7;[FElf.FElf_m008_t101_u2]}}	item_end
item_begin	object_id=10833	texture={{7;[FElf.FElf_m008_t101_u2]}}	item_end
item_begin	object_id=10834	texture={{7;[FElf.FElf_m008_t101_u2]}}	item_end
item_begin	object_id=10835	texture={{7;[FElf.FElf_m008_t101_u2]}}	item_end
item_begin	object_id=11512	texture={{2;[MDarkElf.MDarkElf_m010_t201_l2]};{3;[FDarkElf.FDarkElf_m010_t201_l2]};{4;[MDwarf.MDwarf_m008_t201_l2]};{5;[FDwarf.FDwarf_m008_t201_l2]};{7;[FElf.FElf_m011_t201_l2]};{8;[mMagic.MMagic_m011_t301_l2]};{9;[FMagic.FMagic_m013_t301_l2]};{12;[MShaman.MShaman_m008_t301_l2]};{13;[FShaman.FShaman_m008_t301_l2]}}	item_end
item_begin	object_id=11516	texture={{4;[MDwarf.MDwarf_m008_t201_l2]};{5;[FDwarf.FDwarf_m008_t201_l2]};{7;[FElf.FElf_m008_t101_l2]};{8;[mMagic.MMagic_m011_t301_l2]};{9;[FMagic.FMagic_m013_t301_l2]};{12;[MShaman.MShaman_m008_t301_l2]};{13;[FShaman.FShaman_m008_t301_l2]}}	item_end
item_begin	object_id=11517	texture={{7;[FElf.FElf_m008_t101_u2]}}	item_end
item_begin	object_id=11518	texture={{7;[FElf.FElf_m008_t101_u2]}}	item_end
item_begin	object_id=11519	texture={{7;[FElf.FElf_m008_t101_u2]}}	item_end
item_begin	object_id=11520	texture={{7;[FElf.FElf_m008_t101_u2]}}	item_end
item_begin	object_id=11521	texture={{7;[FElf.FElf_m008_t101_u2]}}	item_end
item_begin	object_id=11522	texture={{7;[FElf.FElf_m008_t101_u2]}}	item_end
item_begin	object_id=11540	texture={{7;[FElf.FElf_m008_t101_u2]}}	item_end
item_begin	object_id=11541	texture={{7;[FElf.FElf_m008_t101_u2]}}	item_end
item_begin	object_id=11542	texture={{7;[FElf.FElf_m008_t101_u2]}}	item_end
item_begin	object_id=11543	texture={{7;[FElf.FElf_m008_t101_u2]}}	item_end
item_begin	object_id=11544	texture={{7;[FElf.FElf_m008_t101_u2]}}	item_end
item_begin	object_id=11545	texture={{7;[FElf.FElf_m008_t101_u2]}}	item_end
item_begin	object_id=11546	texture={{7;[FElf.FElf_m008_t101_u2]}}	item_end
item_begin	object_id=11558	texture={{2;[MDarkElf.MDarkElf_m008_t301_l2]};{3;[FDarkElf.FDarkElf_m006_t301_l2]};{4;[MDwarf.MDwarf_m008_t201_l2]};{5;[FDwarf.FDwarf_m008_t201_l2]};{6;[MElf.MElf_m009_t301_l2]};{7;[FElf.FElf_m006_t301_l2]};{8;[mMagic.MMagic_m011_t301_l2]};{9;[FMagic.FMagic_m013_t301_l2]};{12;[MShaman.MShaman_m008_t301_l2]};{13;[FShaman.FShaman_m008_t301_l2]}}	item_end
item_begin	object_id=11559	texture={{2;[MDarkElf.MDarkElf_m010_t201_l2]};{3;[FDarkElf.FDarkElf_m010_t201_l2]};{4;[MDwarf.MDwarf_m008_t201_l2]};{5;[FDwarf.FDwarf_m008_t201_l2]};{7;[FElf.FElf_m011_t201_l2]};{8;[mMagic.MMagic_m011_t301_l2]};{9;[FMagic.FMagic_m013_t301_l2]};{12;[MShaman.MShaman_m008_t301_l2]};{13;[FShaman.FShaman_m008_t301_l2]}}	item_end
item_begin	object_id=11563	texture={{4;[MDwarf.MDwarf_m008_t201_l2]};{5;[FDwarf.FDwarf_m008_t201_l2]};{7;[FElf.FElf_m008_t101_l2]};{8;[mMagic.MMagic_m011_t301_l2]};{9;[FMagic.FMagic_m013_t301_l2]};{12;[MShaman.MShaman_m008_t301_l2]};{13;[FShaman.FShaman_m008_t301_l2]}}	item_end
item_begin	object_id=11564	texture={{7;[FElf.FElf_m008_t101_u2]}}	item_end
item_begin	object_id=11574	texture={{2;[MDarkElf.MDarkElf_m008_t301_l2]};{3;[FDarkElf.FDarkElf_m006_t301_l2]};{4;[MDwarf.MDwarf_m008_t201_l2]};{5;[FDwarf.FDwarf_m008_t201_l2]};{6;[MElf.MElf_m009_t301_l2]};{7;[FElf.FElf_m006_t301_l2]};{8;[mMagic.MMagic_m011_t301_l2]};{9;[FMagic.FMagic_m013_t301_l2]};{12;[MShaman.MShaman_m008_t301_l2]};{13;[FShaman.FShaman_m008_t301_l2]}}	item_end
item_begin	object_id=13436	texture={{2;[MDarkElf.MDarkElf_m003_t112_u2]};{7;[FElf.FElf_m014_t112_u2]}}	item_end
item_begin	object_id=13448	texture={{0;[MFighter.MFighter_m014_t212_l2]};{1;[FFighter.FFighter_m014_t212_l2]};{2;[MDarkElf.MDarkElf_m012_t212_l2]};{3;[FDarkElf.FDarkElf_m012_t212_l2]};{4;[MDwarf.MDwarf_m010_t212_l2]};{6;[MElf.MElf_m013_t212_l2]};{7;[FElf.FElf_m013_t212_l2]};{8;[MMagic.MMagic_m015_t312_l2]};{9;[FMagic.FMagic_m015_t312_l2]};{10;[MOrc.MOrc_m009_t212_l2]};{11;[FOrc.FOrc_m009_t212_l2]};{12;[MShaman.MShaman_m006_t312_l2]};{13;[FShaman.FShaman_m006_t312_l2]}}	item_end
item_begin	object_id=13451	texture={{0;[MFighter.MFighter_m015_t112_l2]};{1;[FFighter.FFighter_m015_t112_l2]};{2;[MDarkElf.MDarkElf_m004_t112_l2]};{3;[FDarkElf.FDarkElf_m013_t112_l2]};{4;[MDwarf.MDwarf_m010_t212_l2]};{6;[MElf.MElf_m014_t112_l2]};{7;[FElf.FElf_m014_t112_l2]};{8;[MMagic.MMagic_m015_t312_l2]};{9;[FMagic.FMagic_m015_t312_l2]};{10;[MOrc.MOrc_m010_t112_l2]};{11;[FOrc.FOrc_m010_t112_l2]};{12;[MShaman.MShaman_m006_t312_l2]};{13;[FShaman.FShaman_m006_t312_l2]}}	item_end
item_begin	object_id=13454	texture={{0;[MFighter.MFighter_m015_t112_l2]};{1;[FFighter.FFighter_m015_t112_l2]};{2;[MDarkElf.MDarkElf_m013_t312_l2]};{3;[FDarkElf.FDarkElf_m009_t312_l2]};{4;[MDwarf.MDwarf_m010_t212_l2]};{6;[MElf.MElf_m003_t312_l2]};{8;[MMagic.MMagic_m015_t312_l2]};{9;[FMagic.FMagic_m015_t312_l2]};{10;[MOrc.MOrc_m010_t112_l2]};{11;[FOrc.FOrc_m010_t112_l2]};{12;[MShaman.MShaman_m006_t312_l2]};{13;[FShaman.FShaman_m006_t312_l2]}}	item_end
item_begin	object_id=14524	texture={{2;[MDarkElf.MDarkElf_m003_t112_u2]};{7;[FElf.FElf_m014_t112_u2]}}	item_end
item_begin	object_id=15578	texture={{3;[FDarkElf.FDarkElf_m010_t2010_l2]};{8;[MMagic.MMagic_m011_t3010_l2]};{9;[FMagic.FMagic_m013_t3010_l2]};{12;[MShaman.MShaman_m008_t3010_l2]};{13;[FShaman.FShaman_m008_t3010_l2]}}	item_end
item_begin	object_id=15579	texture={{8;[MMagic.MMagic_m011_t3010_l2]};{9;[FMagic.FMagic_m013_t3010_l2]};{12;[MShaman.MShaman_m008_t3010_l2]};{13;[FShaman.FShaman_m008_t3010_l2]}}	item_end
item_begin	object_id=15580	texture={{3;[FDarkElf.FDarkElf_m006_t3010_l2]};{7;[FElf.FElf_m006_t3010_l2]};{8;[MMagic.MMagic_m011_t3010_l2]};{9;[FMagic.FMagic_m013_t3010_l2]};{12;[MShaman.MShaman_m008_t3010_l2]};{13;[FShaman.FShaman_m008_t3010_l2]}}	item_end
item_begin	object_id=15595	texture={{3;[FDarkElf.FDarkElf_m012_t2110_l2]};{8;[MMagic.MMagic_m015_t3110_l2]};{9;[FMagic.FMagic_m015_t3110_l2]};{12;[MShaman.MShaman_m006_t3110_l2]};{13;[FShaman.FShaman_m006_t3110_l2]}}	item_end
item_begin	object_id=15596	texture={{3;[FDarkElf.FDarkElf_m013_t1110_l2]};{8;[MMagic.MMagic_m015_t3110_l2]};{9;[FMagic.FMagic_m015_t3110_l2]};{12;[MShaman.MShaman_m006_t3110_l2]};{13;[FShaman.FShaman_m006_t3110_l2]}}	item_end
item_begin	object_id=15597	texture={{3;[FDarkElf.FDarkElf_m009_t3110_l2]};{8;[MMagic.MMagic_m015_t3110_l2]};{9;[FMagic.FMagic_m015_t3110_l2]};{12;[MShaman.MShaman_m006_t3110_l2]};{13;[FShaman.FShaman_m006_t3110_l2]}}	item_end
item_begin	object_id=15612	texture={{3;[FDarkElf.FDarkElf_m012_t2120_l2]};{8;[MMagic.MMagic_m015_t3120_l2]};{9;[FMagic.FMagic_m015_t3120_l2]};{12;[MShaman.MShaman_m006_t3120_l2]};{13;[FShaman.FShaman_m006_t3120_l2]}}	item_end
item_begin	object_id=15613	texture={{3;[FDarkElf.FDarkElf_m013_t1120_l2]};{8;[MMagic.MMagic_m015_t3120_l2]};{9;[FMagic.FMagic_m015_t3120_l2]};{12;[MShaman.MShaman_m006_t3120_l2]};{13;[FShaman.FShaman_m006_t3120_l2]}}	item_end
item_begin	object_id=15614	texture={{3;[FDarkElf.FDarkElf_m009_t3120_l2]};{8;[MMagic.MMagic_m015_t3120_l2]};{9;[FMagic.FMagic_m015_t3120_l2]};{12;[MShaman.MShaman_m006_t3120_l2]};{13;[FShaman.FShaman_m006_t3120_l2]}}	item_end
item_begin	object_id=15700	texture={{3;[FDarkElf.FDarkElf_m012_t2120_l2]};{8;[MMagic.MMagic_m015_t3120_l2]};{9;[FMagic.FMagic_m015_t3120_l2]};{12;[MShaman.MShaman_m006_t3120_l2]};{13;[FShaman.FShaman_m006_t3120_l2]}}	item_end
item_begin	object_id=15701	texture={{3;[FDarkElf.FDarkElf_m013_t1120_l2]};{8;[MMagic.MMagic_m015_t3120_l2]};{9;[FMagic.FMagic_m015_t3120_l2]};{12;[MShaman.MShaman_m006_t3120_l2]};{13;[FShaman.FShaman_m006_t3120_l2]}}	item_end
item_begin	object_id=15702	texture={{3;[FDarkElf.FDarkElf_m009_t3120_l2]};{8;[MMagic.MMagic_m015_t3120_l2]};{9;[FMagic.FMagic_m015_t3120_l2]};{12;[MShaman.MShaman_m006_t3120_l2]};{13;[FShaman.FShaman_m006_t3120_l2]}}	item_end
item_begin	object_id=15732	texture={{3;[FDarkElf.FDarkElf_m010_t2010_l2]};{8;[MMagic.MMagic_m011_t3010_l2]};{9;[FMagic.FMagic_m013_t3010_l2]};{12;[MShaman.MShaman_m008_t3010_l2]};{13;[FShaman.FShaman_m008_t3010_l2]}}	item_end
item_begin	object_id=15733	texture={{8;[MMagic.MMagic_m011_t3010_l2]};{9;[FMagic.FMagic_m013_t3010_l2]};{12;[MShaman.MShaman_m008_t3010_l2]};{13;[FShaman.FShaman_m008_t3010_l2]}}	item_end
item_begin	object_id=15734	texture={{3;[FDarkElf.FDarkElf_m006_t3010_l2]};{7;[FElf.FElf_m006_t3010_l2]};{8;[MMagic.MMagic_m011_t3010_l2]};{9;[FMagic.FMagic_m013_t3010_l2]};{12;[MShaman.MShaman_m008_t3010_l2]};{13;[FShaman.FShaman_m008_t3010_l2]}}	item_end
item_begin	object_id=15749	texture={{3;[FDarkElf.FDarkElf_m012_t2110_l2]};{8;[MMagic.MMagic_m015_t3110_l2]};{9;[FMagic.FMagic_m015_t3110_l2]};{12;[MShaman.MShaman_m006_t3110_l2]};{13;[FShaman.FShaman_m006_t3110_l2]}}	item_end
item_begin	object_id=15750	texture={{3;[FDarkElf.FDarkElf_m013_t1110_l2]};{8;[MMagic.MMagic_m015_t3110_l2]};{9;[FMagic.FMagic_m015_t3110_l2]};{12;[MShaman.MShaman_m006_t3110_l2]};{13;[FShaman.FShaman_m006_t3110_l2]}}	item_end
item_begin	object_id=15751	texture={{3;[FDarkElf.FDarkElf_m009_t3110_l2]};{8;[MMagic.MMagic_m015_t3110_l2]};{9;[FMagic.FMagic_m015_t3110_l2]};{12;[MShaman.MShaman_m006_t3110_l2]};{13;[FShaman.FShaman_m006_t3110_l2]}}	item_end
item_begin	object_id=16295	texture={{3;[FDarkElf.FDarkElf_m012_t2120_l2]};{8;[MMagic.MMagic_m015_t3120_l2]};{9;[FMagic.FMagic_m015_t3120_l2]};{12;[MShaman.MShaman_m006_t3120_l2]};{13;[FShaman.FShaman_m006_t3120_l2]}}	item_end
item_begin	object_id=16296	texture={{3;[FDarkElf.FDarkElf_m013_t1120_l2]};{8;[MMagic.MMagic_m015_t3120_l2]};{9;[FMagic.FMagic_m015_t3120_l2]};{12;[MShaman.MShaman_m006_t3120_l2]};{13;[FShaman.FShaman_m006_t3120_l2]}}	item_end
item_begin	object_id=16297	texture={{3;[FDarkElf.FDarkElf_m009_t3120_l2]};{8;[MMagic.MMagic_m015_t3120_l2]};{9;[FMagic.FMagic_m015_t3120_l2]};{12;[MShaman.MShaman_m006_t3120_l2]};{13;[FShaman.FShaman_m006_t3120_l2]}}	item_end
item_begin	object_id=16329	texture={{3;[FDarkElf.FDarkElf_m012_t2120_l2]};{8;[MMagic.MMagic_m015_t3120_l2]};{9;[FMagic.FMagic_m015_t3120_l2]};{12;[MShaman.MShaman_m006_t3120_l2]};{13;[FShaman.FShaman_m006_t3120_l2]}}	item_end
item_begin	object_id=16330	texture={{3;[FDarkElf.FDarkElf_m013_t1120_l2]};{8;[MMagic.MMagic_m015_t3120_l2]};{9;[FMagic.FMagic_m015_t3120_l2]};{12;[MShaman.MShaman_m006_t3120_l2]};{13;[FShaman.FShaman_m006_t3120_l2]}}	item_end
item_begin	object_id=16331	texture={{3;[FDarkElf.FDarkElf_m009_t3120_l2]};{8;[MMagic.MMagic_m015_t3120_l2]};{9;[FMagic.FMagic_m015_t3120_l2]};{12;[MShaman.MShaman_m006_t3120_l2]};{13;[FShaman.FShaman_m006_t3120_l2]}}	item_end
item_begin	object_id=16841	texture={{2;[MDarkElf.MDarkElf_m003_t112_u2]};{7;[FElf.FElf_m014_t112_u2]}}	item_end
item_begin	object_id=16843	texture={{0;[MFighter.MFighter_m014_t212_l2]};{1;[FFighter.FFighter_m014_t212_l2]};{2;[MDarkElf.MDarkElf_m012_t212_l2]};{3;[FDarkElf.FDarkElf_m012_t212_l2]};{4;[MDwarf.MDwarf_m010_t212_l2]};{6;[MElf.MElf_m013_t212_l2]};{7;[FElf.FElf_m013_t212_l2]};{8;[MMagic.MMagic_m015_t312_l2]};{9;[FMagic.FMagic_m015_t312_l2]};{10;[MOrc.MOrc_m009_t212_l2]};{11;[FOrc.FOrc_m009_t212_l2]};{12;[MShaman.MShaman_m006_t312_l2]};{13;[FShaman.FShaman_m006_t312_l2]}}	item_end
item_begin	object_id=16844	texture={{0;[MFighter.MFighter_m015_t112_l2]};{1;[FFighter.FFighter_m015_t112_l2]};{2;[MDarkElf.MDarkElf_m004_t112_l2]};{3;[FDarkElf.FDarkElf_m013_t112_l2]};{4;[MDwarf.MDwarf_m010_t212_l2]};{6;[MElf.MElf_m014_t112_l2]};{7;[FElf.FElf_m014_t112_l2]};{8;[MMagic.MMagic_m015_t312_l2]};{9;[FMagic.FMagic_m015_t312_l2]};{10;[MOrc.MOrc_m010_t112_l2]};{11;[FOrc.FOrc_m010_t112_l2]};{12;[MShaman.MShaman_m006_t312_l2]};{13;[FShaman.FShaman_m006_t312_l2]}}	item_end
item_begin	object_id=16845	texture={{0;[MFighter.MFighter_m015_t112_l2]};{1;[FFighter.FFighter_m015_t112_l2]};{2;[MDarkElf.MDarkElf_m013_t312_l2]};{3;[FDarkElf.FDarkElf_m009_t312_l2]};{4;[MDwarf.MDwarf_m010_t212_l2]};{6;[MElf.MElf_m003_t312_l2]};{8;[MMagic.MMagic_m015_t312_l2]};{9;[FMagic.FMagic_m015_t312_l2]};{10;[MOrc.MOrc_m010_t112_l2]};{11;[FOrc.FOrc_m010_t112_l2]};{12;[MShaman.MShaman_m006_t312_l2]};{13;[FShaman.FShaman_m006_t312_l2]}}	item_end
item_begin	object_id=17007	texture={{2;[MDarkElf.MDarkElf_m003_t112_u2]};{7;[FElf.FElf_m014_t112_u2]}}	item_end
item_begin	object_id=21807	texture={{2;[MDarkElf.MDarkElf_m008_t301_l2]};{3;[FDarkElf.FDarkElf_m006_t301_l2]};{4;[MDwarf.MDwarf_m008_t201_l2]};{5;[FDwarf.FDwarf_m008_t201_l2]};{6;[MElf.MElf_m009_t301_l2]};{7;[FElf.FElf_m006_t301_l2]};{8;[mMagic.MMagic_m011_t301_l2]};{9;[FMagic.FMagic_m013_t301_l2]};{12;[MShaman.MShaman_m008_t301_l2]};{13;[FShaman.FShaman_m008_t301_l2]}}	item_end