raid_begin	id=1	raid_id=29001	raid_lvl=40	search_zoneid=30	Loc={-21610.0;181594.0;-5734.0}	desc=[]	rc_level={31;49}	raid_end
raid_begin	id=2	raid_id=29006	raid_lvl=50	search_zoneid=1	Loc={17726.0;108915.0;-6480.0}	desc=[]	rc_level={41;59}	raid_end
raid_begin	id=3	raid_id=29014	raid_lvl=50	search_zoneid=67	Loc={55024.0;17368.0;-5412.0}	desc=[]	rc_level={41;59}	raid_end
raid_begin	id=4	raid_id=25004	raid_lvl=30	search_zoneid=30	Loc={-94208.0;100240.0;-3520.0}	desc=[]	rc_level={22;38}	raid_end
raid_begin	id=5	raid_id=25023	raid_lvl=34	search_zoneid=1	Loc={31452.0;97998.0;-1512.0}	desc=[]	rc_level={26;42}	raid_end
raid_begin	id=6	raid_id=25038	raid_lvl=28	search_zoneid=30	Loc={-57360.0;186272.0;-4967.0}	desc=[]	rc_level={20;36}	raid_end
raid_begin	id=7	raid_id=25041	raid_lvl=35	search_zoneid=1	Loc={36834.0;131872.0;-3144.0}	desc=[]	rc_level={27;43}	raid_end
raid_begin	id=8	raid_id=25063	raid_lvl=35	search_zoneid=30	Loc={-91024.0;116304.0;-3466.0}	desc=[]	rc_level={27;43}	raid_end
raid_begin	id=9	raid_id=25079	raid_lvl=30	search_zoneid=1	Loc={53712.0;102656.0;-1072.0}	desc=[]	rc_level={22;38}	raid_end
raid_begin	id=10	raid_id=25082	raid_lvl=39	search_zoneid=16	Loc={88512.0;140576.0;-3483.0}	desc=[]	rc_level={31;47}	raid_end
raid_begin	id=11	raid_id=25095	raid_lvl=29	search_zoneid=30	Loc={-37856.0;198128.0;-2672.0}	desc=[]	rc_level={21;37}	raid_end
raid_begin	id=12	raid_id=25098	raid_lvl=35	search_zoneid=16	Loc={-5590.0;196307.0;-3464.0}	desc=[]	rc_level={27;43}	raid_end
raid_begin	id=13	raid_id=25112	raid_lvl=30	search_zoneid=16	Loc={-34861.0;165597.0;-3296.0}	desc=[]	rc_level={22;38}	raid_end
raid_begin	id=14	raid_id=25128	raid_lvl=33	search_zoneid=1	Loc={17696.0;179056.0;-3520.0}	desc=[]	rc_level={25;41}	raid_end
raid_begin	id=15	raid_id=25152	raid_lvl=35	search_zoneid=1	Loc={43872.0;123968.0;-2928.0}	desc=[]	rc_level={27;43}	raid_end
raid_begin	id=16	raid_id=25169	raid_lvl=30	search_zoneid=30	Loc={-54464.0;170288.0;-3136.0}	desc=[]	rc_level={22;38}	raid_end
raid_begin	id=17	raid_id=25170	raid_lvl=38	search_zoneid=1	Loc={31731.0;131547.0;-3264.0}	desc=[]	rc_level={30;46}	raid_end
raid_begin	id=18	raid_id=25272	raid_lvl=28	search_zoneid=1	Loc={49248.0;127792.0;-3552.0}	desc=[]	rc_level={20;36}	raid_end
raid_begin	id=19	raid_id=25352	raid_lvl=30	search_zoneid=30	Loc={-16912.0;174912.0;-3264.0}	desc=[]	rc_level={22;38}	raid_end
raid_begin	id=20	raid_id=25354	raid_lvl=35	search_zoneid=30	Loc={-16096.0;184288.0;-3817.0}	desc=[]	rc_level={27;43}	raid_end
raid_begin	id=21	raid_id=25365	raid_lvl=26	search_zoneid=30	Loc={-62000.0;190256.0;-3687.0}	desc=[]	rc_level={18;34}	raid_end
raid_begin	id=22	raid_id=25388	raid_lvl=35	search_zoneid=1	Loc={40128.0;101920.0;-1241.0}	desc=[]	rc_level={27;43}	raid_end
raid_begin	id=23	raid_id=25391	raid_lvl=33	search_zoneid=1	Loc={45600.0;120592.0;-2455.0}	desc=[]	rc_level={25;41}	raid_end
raid_begin	id=24	raid_id=25392	raid_lvl=32	search_zoneid=1	Loc={34866.0;102831.0;-600.0}	desc=[]	rc_level={24;40}	raid_end
raid_begin	id=25	raid_id=25395	raid_lvl=45	search_zoneid=1	Loc={15000.0;119000.0;-11900.0}	desc=[]	rc_level={37;53}	raid_end
raid_begin	id=26	raid_id=25398	raid_lvl=35	search_zoneid=1	Loc={5000.0;189000.0;-3728.0}	desc=[]	rc_level={27;43}	raid_end
raid_begin	id=27	raid_id=25410	raid_lvl=40	search_zoneid=16	Loc={65282.0;84525.0;-3472.0}	desc=[]	rc_level={32;48}	raid_end
raid_begin	id=28	raid_id=25415	raid_lvl=40	search_zoneid=16	Loc={64180.0;70686.0;-3512.0}	desc=[]	rc_level={32;48}	raid_end
raid_begin	id=29	raid_id=25020	raid_lvl=34	search_zoneid=16	Loc={90494.0;125472.0;-2120.0}	desc=[]	rc_level={26;42}	raid_end
raid_begin	id=30	raid_id=25173	raid_lvl=45	search_zoneid=16	Loc={65521.0;75160.0;-3720.0}	desc=[]	rc_level={37;53}	raid_end
raid_begin	id=31	raid_id=25401	raid_lvl=32	search_zoneid=16	Loc={117808.0;102880.0;-36.0}	desc=[]	rc_level={24;40}	raid_end
raid_begin	id=32	raid_id=25118	raid_lvl=35	search_zoneid=16	Loc={34457.0;137231.0;-3120.0}	desc=[]	rc_level={27;43}	raid_end
raid_begin	id=33	raid_id=25223	raid_lvl=35	search_zoneid=16	Loc={44332.0;130419.0;-3368.0}	desc=[]	rc_level={27;43}	raid_end
raid_begin	id=34	raid_id=25385	raid_lvl=36	search_zoneid=16	Loc={40947.0;134269.0;-3256.0}	desc=[]	rc_level={28;44}	raid_end
raid_begin	id=35	raid_id=25412	raid_lvl=47	search_zoneid=16	Loc={81920.0;113136.0;-30.0}	desc=[]	rc_level={39;55}	raid_end
raid_begin	id=36	raid_id=25217	raid_lvl=50	search_zoneid=16	Loc={89904.0;105712.0;-32.0}	desc=[]	rc_level={42;58}	raid_end
raid_begin	id=37	raid_id=25137	raid_lvl=55	search_zoneid=16	Loc={120302.0;112898.0;-37.0}	desc=[]	rc_level={47;63}	raid_end
raid_begin	id=38	raid_id=25176	raid_lvl=55	search_zoneid=16	Loc={92544.0;115232.0;-32.0}	desc=[]	rc_level={47;63}	raid_end
raid_begin	id=39	raid_id=25234	raid_lvl=60	search_zoneid=16	Loc={120080.0;111248.0;-30.0}	desc=[]	rc_level={52;68}	raid_end
raid_begin	id=40	raid_id=25407	raid_lvl=60	search_zoneid=16	Loc={115072.0;112272.0;-30.0}	desc=[]	rc_level={52;68}	raid_end
raid_begin	id=41	raid_id=25007	raid_lvl=42	search_zoneid=97	Loc={124240.0;75376.0;-2800.0}	desc=[]	rc_level={34;50}	raid_end
raid_begin	id=42	raid_id=25026	raid_lvl=49	search_zoneid=67	Loc={92976.0;7920.0;-3914.0}	desc=[]	rc_level={41;57}	raid_end
raid_begin	id=43	raid_id=25064	raid_lvl=40	search_zoneid=67	Loc={97223.0;94223.0;-3712.0}	desc=[]	rc_level={32;48}	raid_end
raid_begin	id=44	raid_id=25085	raid_lvl=44	search_zoneid=67	Loc={66944.0;67504.0;-3704.0}	desc=[]	rc_level={36;52}	raid_end
raid_begin	id=45	raid_id=25088	raid_lvl=43	search_zoneid=67	Loc={63386.0;56731.0;-3704.0}	desc=[]	rc_level={35;51}	raid_end
raid_begin	id=46	raid_id=25102	raid_lvl=45	search_zoneid=97	Loc={113840.0;84256.0;-2480.0}	desc=[]	rc_level={37;53}	raid_end
raid_begin	id=47	raid_id=25134	raid_lvl=40	search_zoneid=67	Loc={95149.0;81709.0;-3704.0}	desc=[]	rc_level={32;48}	raid_end
raid_begin	id=48	raid_id=25155	raid_lvl=40	search_zoneid=67	Loc={73520.0;66912.0;-3728.0}	desc=[]	rc_level={32;48}	raid_end
raid_begin	id=49	raid_id=25158	raid_lvl=48	search_zoneid=67	Loc={77104.0;5408.0;-3088.0}	desc=[]	rc_level={40;56}	raid_end
raid_begin	id=50	raid_id=25260	raid_lvl=45	search_zoneid=67	Loc={93120.0;19440.0;-3607.0}	desc=[]	rc_level={37;53}	raid_end
raid_begin	id=51	raid_id=25431	raid_lvl=44	search_zoneid=67	Loc={63236.0;50155.0;-3600.0}	desc=[]	rc_level={36;52}	raid_end
raid_begin	id=52	raid_id=25437	raid_lvl=45	search_zoneid=67	Loc={67296.0;64128.0;-3723.0}	desc=[]	rc_level={37;53}	raid_end
raid_begin	id=53	raid_id=25438	raid_lvl=44	search_zoneid=97	Loc={107000.0;92000.0;-2272.0}	desc=[]	rc_level={36;52}	raid_end
raid_begin	id=54	raid_id=25441	raid_lvl=45	search_zoneid=97	Loc={111440.0;82912.0;-2912.0}	desc=[]	rc_level={37;53}	raid_end
raid_begin	id=55	raid_id=25076	raid_lvl=25	search_zoneid=30	Loc={-60976.0;127552.0;-2960.0}	desc=[]	rc_level={17;33}	raid_end
raid_begin	id=56	raid_id=25127	raid_lvl=24	search_zoneid=30	Loc={-47552.0;219232.0;-2413.0}	desc=[]	rc_level={16;32}	raid_end
raid_begin	id=57	raid_id=25146	raid_lvl=21	search_zoneid=30	Loc={-13056.0;215680.0;-3760.0}	desc=[]	rc_level={13;29}	raid_end
raid_begin	id=58	raid_id=25149	raid_lvl=25	search_zoneid=30	Loc={-12624.0;138112.0;-3552.0}	desc=[]	rc_level={17;33}	raid_end
raid_begin	id=59	raid_id=25166	raid_lvl=25	search_zoneid=30	Loc={-21799.0;152137.0;-3048.0}	desc=[]	rc_level={17;33}	raid_end
raid_begin	id=60	raid_id=25357	raid_lvl=21	search_zoneid=30	Loc={-3456.0;112864.0;-3456.0}	desc=[]	rc_level={13;29}	raid_end
raid_begin	id=61	raid_id=25366	raid_lvl=23	search_zoneid=30	Loc={-51279.0;190444.0;-3568.0}	desc=[]	rc_level={15;31}	raid_end
raid_begin	id=62	raid_id=25369	raid_lvl=25	search_zoneid=30	Loc={-45008.0;100674.0;-3384.0}	desc=[]	rc_level={17;33}	raid_end
raid_begin	id=63	raid_id=25019	raid_lvl=25	search_zoneid=1	Loc={7376.0;169376.0;-3600.0}	desc=[]	rc_level={17;33}	raid_end
raid_begin	id=64	raid_id=25001	raid_lvl=23	search_zoneid=30	Loc={-66686.0;140643.0;-2496.0}	desc=[]	rc_level={15;31}	raid_end
raid_begin	id=65	raid_id=25010	raid_lvl=55	search_zoneid=97	Loc={116128.0;65997.0;-3992.0}	desc=[]	rc_level={47;63}	raid_end
raid_begin	id=66	raid_id=25013	raid_lvl=50	search_zoneid=97	Loc={169744.0;11920.0;-2732.0}	desc=[]	rc_level={42;58}	raid_end
raid_begin	id=67	raid_id=25044	raid_lvl=47	search_zoneid=97	Loc={107792.0;27728.0;-3488.0}	desc=[]	rc_level={39;55}	raid_end
raid_begin	id=68	raid_id=25047	raid_lvl=49	search_zoneid=97	Loc={116352.0;27648.0;-3319.0}	desc=[]	rc_level={41;57}	raid_end
raid_begin	id=69	raid_id=25050	raid_lvl=51	search_zoneid=97	Loc={125520.0;27216.0;-3632.0}	desc=[]	rc_level={43;59}	raid_end
raid_begin	id=70	raid_id=25051	raid_lvl=65	search_zoneid=16	Loc={109661.0;-4716.0;-2816.0}	desc=[]	rc_level={57;73}	raid_end
raid_begin	id=71	raid_id=25057	raid_lvl=45	search_zoneid=16	Loc={107056.0;168176.0;-3456.0}	desc=[]	rc_level={37;53}	raid_end
raid_begin	id=72	raid_id=25067	raid_lvl=52	search_zoneid=67	Loc={94992.0;-23168.0;-2176.0}	desc=[]	rc_level={44;60}	raid_end
raid_begin	id=73	raid_id=25070	raid_lvl=55	search_zoneid=97	Loc={122263.0;66106.0;-3720.0}	desc=[]	rc_level={47;63}	raid_end
raid_begin	id=74	raid_id=25089	raid_lvl=59	search_zoneid=97	Loc={165424.0;93776.0;-2992.0}	desc=[]	rc_level={51;67}	raid_end
raid_begin	id=75	raid_id=25099	raid_lvl=56	search_zoneid=67	Loc={66388.0;36416.0;-3640.0}	desc=[]	rc_level={48;64}	raid_end
raid_begin	id=76	raid_id=25103	raid_lvl=55	search_zoneid=97	Loc={135872.0;94592.0;-3735.0}	desc=[]	rc_level={47;63}	raid_end
raid_begin	id=77	raid_id=25106	raid_lvl=60	search_zoneid=1	Loc={2317.0;179514.0;-3712.0}	desc=[]	rc_level={52;68}	raid_end
raid_begin	id=78	raid_id=25119	raid_lvl=50	search_zoneid=97	Loc={121872.0;64032.0;-3536.0}	desc=[]	rc_level={42;58}	raid_end
raid_begin	id=79	raid_id=25122	raid_lvl=56	search_zoneid=67	Loc={86300.0;-8200.0;-3000.0}	desc=[]	rc_level={48;64}	raid_end
raid_begin	id=80	raid_id=25125	raid_lvl=65	search_zoneid=97	Loc={170656.0;85184.0;-2000.0}	desc=[]	rc_level={57;73}	raid_end
raid_begin	id=81	raid_id=25131	raid_lvl=50	search_zoneid=67	Loc={75488.0;-9360.0;-2720.0}	desc=[]	rc_level={42;58}	raid_end
raid_begin	id=82	raid_id=25159	raid_lvl=54	search_zoneid=97	Loc={118265.0;65988.0;-3984.0}	desc=[]	rc_level={46;62}	raid_end
raid_begin	id=83	raid_id=25192	raid_lvl=43	search_zoneid=97	Loc={125920.0;190208.0;-3291.0}	desc=[]	rc_level={35;51}	raid_end
raid_begin	id=84	raid_id=25226	raid_lvl=62	search_zoneid=16	Loc={81280.0;129839.0;-3600.0}	desc=[]	rc_level={54;70}	raid_end
raid_begin	id=85	raid_id=25230	raid_lvl=57	search_zoneid=67	Loc={66672.0;46704.0;-3920.0}	desc=[]	rc_level={49;65}	raid_end
raid_begin	id=86	raid_id=25241	raid_lvl=55	search_zoneid=97	Loc={165984.0;88048.0;-2384.0}	desc=[]	rc_level={47;63}	raid_end
raid_begin	id=87	raid_id=25255	raid_lvl=65	search_zoneid=30	Loc={-43899.0;201644.0;-3344.0}	desc=[]	rc_level={57;73}	raid_end
raid_begin	id=88	raid_id=25256	raid_lvl=60	search_zoneid=16	Loc={-19650.0;169716.0;-3032.0}	desc=[]	rc_level={52;68}	raid_end
raid_begin	id=89	raid_id=25418	raid_lvl=57	search_zoneid=67	Loc={62788.0;34146.0;-3752.0}	desc=[]	rc_level={49;65}	raid_end
raid_begin	id=90	raid_id=25420	raid_lvl=58	search_zoneid=67	Loc={66811.0;31045.0;-3720.0}	desc=[]	rc_level={50;66}	raid_end
raid_begin	id=91	raid_id=25423	raid_lvl=61	search_zoneid=97	Loc={113600.0;47120.0;-4640.0}	desc=[]	rc_level={53;69}	raid_end
raid_begin	id=92	raid_id=25434	raid_lvl=55	search_zoneid=97	Loc={104096.0;-16896.0;-1803.0}	desc=[]	rc_level={47;63}	raid_end
raid_begin	id=93	raid_id=25456	raid_lvl=49	search_zoneid=97	Loc={133632.0;87072.0;-3623.0}	desc=[]	rc_level={41;57}	raid_end
raid_begin	id=94	raid_id=25460	raid_lvl=51	search_zoneid=97	Loc={150304.0;67776.0;-3688.0}	desc=[]	rc_level={43;59}	raid_end
raid_begin	id=95	raid_id=25463	raid_lvl=56	search_zoneid=97	Loc={166288.0;68096.0;-3264.0}	desc=[]	rc_level={48;64}	raid_end
raid_begin	id=96	raid_id=25473	raid_lvl=52	search_zoneid=97	Loc={175712.0;29856.0;-3776.0}	desc=[]	rc_level={44;60}	raid_end
raid_begin	id=97	raid_id=25475	raid_lvl=55	search_zoneid=97	Loc={178005.0;12147.0;-2720.0}	desc=[]	rc_level={47;63}	raid_end
raid_begin	id=98	raid_id=25478	raid_lvl=65	search_zoneid=1	Loc={29403.0;179274.0;-3608.0}	desc=[]	rc_level={57;73}	raid_end
raid_begin	id=99	raid_id=25498	raid_lvl=45	search_zoneid=1	Loc={126624.0;174448.0;-3056.0}	desc=[]	rc_level={37;53}	raid_end
raid_begin	id=100	raid_id=25035	raid_lvl=70	search_zoneid=97	Loc={180968.0;12035.0;-2720.0}	desc=[]	rc_level={62;78}	raid_end
raid_begin	id=101	raid_id=25163	raid_lvl=70	search_zoneid=97	Loc={130500.0;59098.0;3584.0}	desc=[]	rc_level={62;78}	raid_end
raid_begin	id=102	raid_id=25252	raid_lvl=70	search_zoneid=97	Loc={192376.0;22087.0;-3608.0}	desc=[]	rc_level={62;78}	raid_end
raid_begin	id=103	raid_id=25263	raid_lvl=67	search_zoneid=30	Loc={-56356.0;192356.0;-3704.0}	desc=[]	rc_level={59;75}	raid_end
raid_begin	id=104	raid_id=25453	raid_lvl=70	search_zoneid=97	Loc={139369.0;60080.0;-3632.0}	desc=[]	rc_level={62;78}	raid_end
raid_begin	id=105	raid_id=29020	raid_lvl=80	search_zoneid=97	Loc={115213.0;16623.0;10080.0}	desc=[]	rc_level={72;88}	raid_end
raid_begin	id=106	raid_id=25738	raid_lvl=75	search_zoneid=16	Loc={-11255.0;179636.0;-4064.0}	desc=[]	rc_level={67;83}	raid_end
raid_begin	id=107	raid_id=25739	raid_lvl=75	search_zoneid=16	Loc={56392.0;179492.0;-2672.0}	desc=[]	rc_level={67;83}	raid_end
raid_begin	id=108	raid_id=25742	raid_lvl=75	search_zoneid=1	Loc={51464.0;178421.0;-2592.0}	desc=[]	rc_level={67;83}	raid_end
raid_begin	id=109	raid_id=25743	raid_lvl=75	search_zoneid=67	Loc={87195.0;79139.0;-3368.0}	desc=[]	rc_level={67;83}	raid_end
raid_begin	id=110	raid_id=25744	raid_lvl=55	search_zoneid=97	Loc={167165.0;15046.0;-3312.0}	desc=[]	rc_level={47;63}	raid_end
raid_begin	id=111	raid_id=25745	raid_lvl=55	search_zoneid=67	Loc={63645.0;39175.0;-3704.0}	desc=[]	rc_level={47;63}	raid_end
raid_begin	id=112	raid_id=25746	raid_lvl=60	search_zoneid=97	Loc={103560.0;13034.0;-3432.0}	desc=[]	rc_level={52;68}	raid_end
raid_begin	id=113	raid_id=25747	raid_lvl=60	search_zoneid=97	Loc={103089.0;3473.0;-3192.0}	desc=[]	rc_level={52;68}	raid_end
raid_begin	id=114	raid_id=25748	raid_lvl=60	search_zoneid=97	Loc={103143.0;7981.0;-2856.0}	desc=[]	rc_level={52;68}	raid_end
raid_begin	id=115	raid_id=25749	raid_lvl=60	search_zoneid=97	Loc={103170.0;36.0;-3416.0}	desc=[]	rc_level={52;68}	raid_end
raid_begin	id=116	raid_id=25750	raid_lvl=60	search_zoneid=97	Loc={104359.0;-2881.0;-3344.0}	desc=[]	rc_level={52;68}	raid_end
raid_begin	id=117	raid_id=25751	raid_lvl=60	search_zoneid=97	Loc={103808.0;-5154.0;-3400.0}	desc=[]	rc_level={52;68}	raid_end
raid_begin	id=118	raid_id=25754	raid_lvl=65	search_zoneid=97	Loc={142240.0;-4570.0;-4776.0}	desc=[]	rc_level={57;73}	raid_end
raid_begin	id=119	raid_id=25755	raid_lvl=65	search_zoneid=97	Loc={138613.0;-15986.0;-4248.0}	desc=[]	rc_level={57;73}	raid_end
raid_begin	id=120	raid_id=25756	raid_lvl=65	search_zoneid=97	Loc={141702.0;-26321.0;-2016.0}	desc=[]	rc_level={57;73}	raid_end
raid_begin	id=121	raid_id=25757	raid_lvl=65	search_zoneid=97	Loc={151511.0;-23058.0;-3416.0}	desc=[]	rc_level={57;73}	raid_end
raid_begin	id=122	raid_id=25758	raid_lvl=65	search_zoneid=97	Loc={108463.0;-1012.0;-3008.0}	desc=[]	rc_level={57;73}	raid_end
raid_begin	id=123	raid_id=25759	raid_lvl=65	search_zoneid=97	Loc={114459.0;2022.0;-3720.0}	desc=[]	rc_level={57;73}	raid_end
raid_begin	id=124	raid_id=25760	raid_lvl=65	search_zoneid=97	Loc={123537.0;496.0;-3464.0}	desc=[]	rc_level={57;73}	raid_end
raid_begin	id=125	raid_id=25761	raid_lvl=65	search_zoneid=97	Loc={125446.0;-12996.0;-3960.0}	desc=[]	rc_level={57;73}	raid_end
raid_begin	id=126	raid_id=25762	raid_lvl=65	search_zoneid=97	Loc={131304.0;-16372.0;-3304.0}	desc=[]	rc_level={57;73}	raid_end
raid_begin	id=127	raid_id=25763	raid_lvl=65	search_zoneid=97	Loc={128225.0;-1232.0;-2008.0}	desc=[]	rc_level={57;73}	raid_end
raid_begin	id=128	raid_id=25766	raid_lvl=70	search_zoneid=97	Loc={136522.0;56826.0;-3672.0}	desc=[]	rc_level={62;78}	raid_end
raid_begin	id=129	raid_id=25767	raid_lvl=70	search_zoneid=97	Loc={135422.0;52918.0;-3688.0}	desc=[]	rc_level={62;78}	raid_end
raid_begin	id=130	raid_id=25768	raid_lvl=70	search_zoneid=97	Loc={135784.0;48461.0;-3544.0}	desc=[]	rc_level={62;78}	raid_end
raid_begin	id=131	raid_id=25769	raid_lvl=70	search_zoneid=97	Loc={138343.0;44929.0;-3376.0}	desc=[]	rc_level={62;78}	raid_end
raid_begin	id=132	raid_id=25770	raid_lvl=70	search_zoneid=97	Loc={137737.0;40324.0;-3624.0}	desc=[]	rc_level={62;78}	raid_end
raid_begin	id=133	raid_id=25772	raid_lvl=70	search_zoneid=97	Loc={185884.0;36812.0;-4184.0}	desc=[]	rc_level={62;78}	raid_end
raid_begin	id=134	raid_id=25773	raid_lvl=70	search_zoneid=97	Loc={173184.0;39039.0;-4640.0}	desc=[]	rc_level={62;78}	raid_end
raid_begin	id=135	raid_id=25774	raid_lvl=70	search_zoneid=97	Loc={166598.0;38444.0;-3584.0}	desc=[]	rc_level={62;78}	raid_end
raid_begin	id=136	raid_id=25775	raid_lvl=70	search_zoneid=97	Loc={166221.0;51612.0;-4112.0}	desc=[]	rc_level={62;78}	raid_end
raid_begin	id=137	raid_id=25776	raid_lvl=70	search_zoneid=97	Loc={176000.0;44798.0;-4848.0}	desc=[]	rc_level={62;78}	raid_end
raid_begin	id=138	raid_id=25777	raid_lvl=70	search_zoneid=97	Loc={173115.0;45513.0;-4792.0}	desc=[]	rc_level={62;78}	raid_end
raid_begin	id=139	raid_id=25779	raid_lvl=75	search_zoneid=97	Loc={142086.0;37262.0;-3488.0}	desc=[]	rc_level={67;83}	raid_end
raid_begin	id=140	raid_id=25780	raid_lvl=75	search_zoneid=97	Loc={147001.0;36243.0;-3224.0}	desc=[]	rc_level={67;83}	raid_end
raid_begin	id=141	raid_id=25781	raid_lvl=75	search_zoneid=97	Loc={153431.0;32794.0;-2968.0}	desc=[]	rc_level={67;83}	raid_end
raid_begin	id=142	raid_id=25782	raid_lvl=75	search_zoneid=97	Loc={159694.0;41641.0;-3688.0}	desc=[]	rc_level={67;83}	raid_end
raid_begin	id=143	raid_id=25783	raid_lvl=75	search_zoneid=97	Loc={162450.0;47460.0;-3240.0}	desc=[]	rc_level={67;83}	raid_end
raid_begin	id=144	raid_id=25784	raid_lvl=75	search_zoneid=97	Loc={161507.0;52820.0;-3536.0}	desc=[]	rc_level={67;83}	raid_end
raid_begin	id=145	raid_id=29068	raid_lvl=84	search_zoneid=16	Loc={185708.0;114298.0;-82.0}	desc=[]	rc_level={76;90}	raid_end
raid_begin	id=146	raid_id=25283	raid_lvl=82	search_zoneid=97	Loc={185059.0;-9610.0;-54.0}	desc=[]	rc_level={76;90}	raid_end
raid_begin	id=147	raid_id=25286	raid_lvl=82	search_zoneid=67	Loc={-6675.0;18505.0;-54.0}	desc=[]	rc_level={76;90}	raid_end
raid_begin	id=148	raid_id=25140	raid_lvl=80	search_zoneid=97	Loc={192727.0;56733.0;-76.0}	desc=[]	rc_level={72;88}	raid_end
raid_begin	id=149	raid_id=25162	raid_lvl=80	search_zoneid=97	Loc={193782.0;54356.0;-43.0}	desc=[]	rc_level={72;88}	raid_end
raid_begin	id=150	raid_id=25467	raid_lvl=80	search_zoneid=97	Loc={186411.0;61177.0;-41.0}	desc=[]	rc_level={72;88}	raid_end
raid_begin	id=151	raid_id=25470	raid_lvl=80	search_zoneid=97	Loc={187153.0;56493.0;-45.0}	desc=[]	rc_level={72;88}	raid_end
raid_begin	id=152	raid_id=25073	raid_lvl=80	search_zoneid=16	Loc={143959.0;110375.0;-39.0}	desc=[]	rc_level={72;88}	raid_end
raid_begin	id=153	raid_id=25109	raid_lvl=80	search_zoneid=16	Loc={152266.0;110396.0;-55.0}	desc=[]	rc_level={72;88}	raid_end
raid_begin	id=154	raid_id=25054	raid_lvl=80	search_zoneid=97	Loc={114061.0;16790.0;39.0}	desc=[]	rc_level={72;88}	raid_end
raid_begin	id=155	raid_id=25092	raid_lvl=80	search_zoneid=97	Loc={116295.0;16090.0;19.0}	desc=[]	rc_level={72;88}	raid_end
raid_begin	id=156	raid_id=25126	raid_lvl=80	search_zoneid=97	Loc={116496.0;15361.0;69.0}	desc=[]	rc_level={72;88}	raid_end
raid_begin	id=157	raid_id=25143	raid_lvl=80	search_zoneid=97	Loc={112449.0;16285.0;69.0}	desc=[]	rc_level={72;88}	raid_end
raid_begin	id=158	raid_id=25220	raid_lvl=80	search_zoneid=97	Loc={112051.0;16751.0;-21.0}	desc=[]	rc_level={72;88}	raid_end
raid_begin	id=159	raid_id=25444	raid_lvl=80	search_zoneid=97	Loc={113451.0;17760.0;-43.0}	desc=[]	rc_level={72;88}	raid_end
raid_begin	id=160	raid_id=25447	raid_lvl=80	search_zoneid=97	Loc={113088.0;17206.0;-14.0}	desc=[]	rc_level={72;88}	raid_end
raid_begin	id=161	raid_id=25450	raid_lvl=80	search_zoneid=97	Loc={113360.0;15313.0;95.0}	desc=[]	rc_level={72;88}	raid_end
raid_begin	id=162	raid_id=29022	raid_lvl=75	search_zoneid=16	Loc={42849.0;207338.0;-3752.0}	desc=[]	rc_level={67;83}	raid_end